Removed Pin From Net: NetName=COL3 Pin=D38-2
Removed Pin From Net: NetName=COL2 Pin=D39-2
Removed Pin From Net: NetName=ROW0 Pin=SW0-2-2
Removed Pin From Net: NetName=ROW0 Pin=SW0-3-2
Removed Member From Class: ClassName=Left Member=D38
Removed Member From Class: ClassName=Left Member=D39
Removed Member From Class: ClassName=Left Member=SW0-2
Removed Member From Class: ClassName=Left Member=SW0-3
Added Room: Name=Left
